Getting Started with TernTables
…
TernDesc <- ternD(
  data             = tern_colon,
  exclude_vars     = c("ID"),
  output_docx      = file.path(out_dir, "Tern_descriptive.docx"),
  methods_filename = file.path(out_dir, "TernTables_methods.docx"),
  category_start = c(
    "Patient Demographics"  = "Age (yr)",
    "Surgical Findings"     = "Colonic Obstruction",
    "Tumor Characteristics" = "Positive Lymph Nodes (n)",
    "Outcomes"              = "Recurrence"
  )
)
TernDesc
#> # A tibble: 25 × 2
#>    Variable                 `Total\n(N = 929)`
#>    <chr>                    <chr>             
#>  1 Age (yr)                 "61 [53–69]"      
#>  2 Sex                      ""                
#>  3 Female                   "445 (48%)"       
#>  4 Male                     "484 (52%)"       
#>  5 Colonic Obstruction      "180 (19%)"       
#>  6 Bowel Perforation        "27 (3%)"         
#>  7 Positive Lymph Nodes (n) "2 [1–5]"         
#>  8 > 4 Positive Nodes       "255 (27%)"       
#>  9 Tumor Adherence          "135 (15%)"       
#> 10 Tumor Differentiation    ""                
#> # ℹ 15 more rows
…
  exclude_vars     = c("ID"),
  group_var        = "Recurrence",
  output_docx      = file.path(out_dir, "Tern_2_group.docx"),
  methods_filename = file.path(out_dir, "TernTables_methods.docx"),
  OR_col           = TRUE,
  insert_subheads  = TRUE,
  category_start   = c(
    "Patient Demographics"  = "Age (yr)",
    "Surgical Findings"     = "Colonic Obstruction",
    "Tumor Characteristics" = "Positive Lymph Nodes (n)",
    "Treatment Details"     = "Treatment Arm"
  )
)
Tern2v
#> # A tibble: 22 × 6
#>    Variable     No Recurrence (n = 4…¹ `Recurrence (n = 468)` `Total\n(N = 929)`
#>    <chr>        <chr>                  <chr>                  <chr>             
#>  1 Age (yr)     "61 [54–70]"           "61 [51.8–68]"         "61 [53–69]"      
#>  2 Sex          ""                     ""                     ""                
#>  3 Female       "216 (47%)"            "229 (49%)"            "445 (48%)"       
#>  4 Male         "245 (53%)"            "239 (51%)"            "484 (52%)"       
#>  5 Colonic Obs… "81 (18%)"             "99 (21%)"             "180 (19%)"       
#>  6 Bowel Perfo… "10 (2%)"              "17 (4%)"              "27 (3%)"         
#>  7 Positive Ly… "2 [1–3]"              "3 [2–6]"              "2 [1–5]"         
#>  8 > 4 Positiv… "75 (16%)"             "180 (38%)"            "255 (27%)"       
#>  9 Tumor Adher… "53 (11%)"             "82 (18%)"             "135 (15%)"       
#> 10 Tumor Diffe… ""                     ""                     ""                
#> # ℹ 12 more rows
#> # ℹ abbreviated name: ¹​`No Recurrence (n = 461)`
#> # ℹ 2 more variables: OR <chr>, p <chr>
…
  exclude_vars       = c("ID"),
  group_var          = "Treatment_Arm",
  group_order        = c("Observation", "Levamisole", "Levamisole + 5FU"),
  output_docx        = file.path(out_dir, "Tern_3_group.docx"),
  methods_filename   = file.path(out_dir, "TernTables_methods.docx"),
  consider_normality = TRUE,
  category_start     = c(
    "Patient Demographics"  = "Age (yr)",
    "Surgical Findings"     = "Colonic Obstruction",
    "Tumor Characteristics" = "Positive Lymph Nodes (n)",
    "Outcomes"              = "Recurrence"
  )
)
Tern3v
#> # A tibble: 21 × 6
#>    Variable Observation (n = 315…¹ `Levamisole (n = 310)` Levamisole + 5FU (n …²
#>    <chr>    <chr>                  <chr>                  <chr>                 
#>  1 Age (yr) "60 [53–68]"           "61 [53–69]"           "62 [52–70]"          
#>  2 Sex      ""                     ""                     ""                    
#>  3 Female   "149 (47%)"            "133 (43%)"            "163 (54%)"           
#>  4 Male     "166 (53%)"            "177 (57%)"            "141 (46%)"           
#>  5 Colonic… "63 (20%)"             "63 (20%)"             "54 (18%)"            
#>  6 Bowel P… "9 (3%)"               "10 (3%)"              "8 (3%)"              
#>  7 Positiv… "2 [1–5]"              "2 [1–5]"              "2 [1–4]"             
#>  8 > 4 Pos… "87 (28%)"             "89 (29%)"             "79 (26%)"            
#>  9 Tumor A… "47 (15%)"             "49 (16%)"             "39 (13%)"            
#> 10 Tumor D… ""                     ""                     ""                    
#> # ℹ 11 more rows
#> # ℹ abbreviated names: ¹​`Observation (n = 315)`, ²​`Levamisole + 5FU (n = 304)`
#> # ℹ 2 more variables: `Total\n(N = 929)` <chr>, p <chr>
…
